[
  {
    "agent": "007",
    "country": "Brazil",
    "address": "Avenida Vieira Souto 168 Ipanema, Rio de Janeiro",
    "date": "Dec 17, 1995, 9:45:17 PM",
    "location": [-22.9865897, -43.1990855]
  },
  {
    "agent": "005",
    "country": "Poland",
    "address": "Rynek Glowny 12, Krakow",
    "date": "Apr 5, 2011, 5:05:12 PM",
    "location": [50.0602471, 19.9381654]
  },
  {
    "agent": "007",
    "country": "Morocco",
    "address": "27 Derb Lferrane, Marrakech",
    "date": "Jan 1, 2001, 12:00:00 AM",
    "location": [31.630378, -7.9844423]
  },
  {
    "agent": "005",
    "country": "Brazil",
    "address": "Rua Roberto Simonsen 122, Sao Paulo",
    "date": "May 5, 1986, 8:40:23 AM",
    "location": [-23.5480941, -46.6329181]
  },
  {
    "agent": "011",
    "country": "Poland",
    "address": "swietego Tomasza 35, Krakow",
    "date": "Sep 7, 1997, 7:12:53 PM",
    "location": [50.0619738, 19.9425803]
  },
  {
    "agent": "003",
    "country": "Morocco",
    "address": "Rue Al-Aidi Ali Al-Maaroufi, Casablanca",
    "date": "Aug 29, 2012, 10:17:05 AM",
    "location": [33.6018513, -7.6196031]
  },
  {
    "agent": "008",
    "country": "Brazil",
    "address": "Rua tamoana 418, tefe",
    "date": "Nov 10, 2005, 1:25:13 PM",
    "location": [-3.3612727, -64.7206394]
  },
  {
    "agent": "013",
    "country": "Poland",
    "address": "Zlota 9, Lublin",
    "date": "Oct 17, 2002, 10:52:19 AM",
    "location": [51.2478988, 22.5699249]
  },
  {
    "agent": "002",
    "country": "Morocco",
    "address": "Riad Sultan 19, Tangier",
    "date": "Jan 1, 2017, 5:00:00 PM",
    "location": [35.7890681, -5.813566]
  },
  {
    "agent": "009",
    "country": "Morocco",
    "address": "atlas marina beach, agadir",
    "date": "Dec 1, 2016, 9:21:21 PM",
    "location": [30.4217072, -9.6190101]
  }
]
